\relax 
\providecommand\hyper@newdestlabel[2]{}
\providecommand\HyperFirstAtBeginDocument{\AtBeginDocument}
\HyperFirstAtBeginDocument{\ifx\hyper@anchor\@undefined
\global\let\oldcontentsline\contentsline
\gdef\contentsline#1#2#3#4{\oldcontentsline{#1}{#2}{#3}}
\global\let\oldnewlabel\newlabel
\gdef\newlabel#1#2{\newlabelxx{#1}#2}
\gdef\newlabelxx#1#2#3#4#5#6{\oldnewlabel{#1}{{#2}{#3}}}
\AtEndDocument{\ifx\hyper@anchor\@undefined
\let\contentsline\oldcontentsline
\let\newlabel\oldnewlabel
\fi}
\fi}
\global\let\hyper@last\relax 
\gdef\HyperFirstAtBeginDocument#1{#1}
\providecommand\HyField@AuxAddToFields[1]{}
\providecommand\HyField@AuxAddToCoFields[2]{}
\citation{Mchugh}
\citation{Rocca2010}
\citation{Watts2011}
\citation{BeckerWatts1995}
\citation{VonAllmenTeaching}
\citation{Rascher2005}
\citation{Einolf2005}
\citation{Baird}
\citation{HakesSauer2006}
\citation{BeckerBook}
\citation{Rascher2005}
\citation{Porter2004}
\citation{SmithGroupProject}
\bibstyle{apa}
\bibdata{MoneyballSources}
\bibcite{Baird}{{1}{2005}{{Baird}}{{}}}
\bibcite{BeckerBook}{{2}{2006}{{Becker et~al.}}{{}}}
\bibcite{BeckerWatts1995}{{3}{1995}{{Becker and Watts}}{{}}}
\bibcite{Einolf2005}{{4}{2005}{{Einolf}}{{}}}
\bibcite{HakesSauer2006}{{5}{2006}{{Hakes and Sauer}}{{}}}
\bibcite{Mchugh}{{6}{2009}{{Mchugh}}{{}}}
\bibcite{Porter2004}{{7}{2004}{{Porter et~al.}}{{}}}
\bibcite{Rascher2005}{{8}{2005}{{Rascher}}{{}}}
\bibcite{Rocca2010}{{9}{2010}{{Rocca}}{{}}}
\bibcite{SmithGroupProject}{{10}{2015}{{Smith}}{{}}}
\bibcite{VonAllmenTeaching}{{11}{2005}{{{Von Allmen}}}{{}}}
\bibcite{Watts2011}{{12}{2011}{{Watts and Schaur}}{{}}}
